…
```
## [1] "SHOW FILE WHEN NA VALUES REMOVED: "
```

```r
DAYSTEPS
```

```
## # A tibble: 53 x 2
##    date       TOTALSTEPS
##    <chr>           <int>
##  1 10/10/2012       9900
##  2 10/11/2012      10304
##  3 10/12/2012      17382
##  4 10/13/2012      12426
##  5 10/14/2012      15098
##  6 10/15/2012      10139
##  7 10/16/2012      15084
##  8 10/17/2012      13452
##  9 10/18/2012      10056
## 10 10/19/2012      11829
## # ... with 43 more rows
```
…
